<?xml version="1.0" encoding="UTF-8" standalone="no"?>
<svg xmlns="http://www.w3.org/2000/svg" xmlns:xlink="http://www.w3.org/1999/xlink" contentStyleType="text/css" height="378.125px" preserveAspectRatio="none" style="width:325px;height:378px;" version="1.1" viewBox="0 0 325 378" width="325px" zoomAndPan="magnify"><defs><linearGradient id="g33ch3fy0a0p60" x1="50%" x2="50%" y1="0%" y2="100%"><stop offset="0%" stop-color="#D3F198"/><stop offset="100%" stop-color="#B5E853"/></linearGradient></defs><g><!--MD5=[4685485b66b78e2e24b4792d242705f7]
class Component1--><g id="elem_Component1"><rect codeLine="2" fill="url(#g33ch3fy0a0p60)" height="74.5931" id="Component1" rx="20.8333" ry="20.8333" style="stroke:#D3F198;stroke-width:1.0416666666666667;" width="117.7083" x="17.7083" y="17.7083"/><rect fill="url(#g33ch3fy0a0p60)" height="34.1715" rx="20.8333" ry="20.8333" style="stroke:url(#g33ch3fy0a0p60);stroke-width:1.0416666666666667;" width="117.7083" x="17.7083" y="17.7083"/><rect fill="url(#g33ch3fy0a0p60)" height="20.8333" style="stroke:url(#g33ch3fy0a0p60);stroke-width:1.0416666666666667;" width="117.7083" x="17.7083" y="31.0465"/><rect codeLine="2" fill="none" height="74.5931" id="Component1" rx="20.8333" ry="20.8333" style="stroke:#D3F198;stroke-width:1.0416666666666667;" width="117.7083" x="17.7083" y="17.7083"/><ellipse cx="32.2917" cy="34.7941" fill="none" rx="10.4167" ry="10.4167" style="stroke:#6D8B32;stroke-width:1.0416666666666667;"/><path d="M34.2285,31.4087 C33.5449,31.0832 33.1055,30.9855 32.4544,30.9855 C30.5339,30.9855 29.0527,32.4992 29.0527,34.5011 L29.0527,35.3312 C29.0527,37.2355 30.6152,38.619 32.7311,38.619 C33.6263,38.619 34.4889,38.3911 35.026,37.9842 C35.4655,37.6912 35.6934,37.3657 35.6934,37.0728 C35.6934,36.7472 35.4004,36.4543 35.0749,36.4543 C34.9121,36.4543 34.7656,36.5194 34.6191,36.6496 C34.2773,37.0076 34.2773,37.0076 34.1471,37.0728 C33.8379,37.2681 33.3333,37.3657 32.7637,37.3657 C31.2663,37.3657 30.306,36.5519 30.306,35.2987 L30.306,34.5011 C30.306,33.1828 31.2337,32.2225 32.5033,32.2225 C32.9264,32.2225 33.3822,32.3364 33.724,32.5317 C34.082,32.7271 34.2122,32.8898 34.2773,33.1828 C34.3262,33.492 34.3424,33.5734 34.4401,33.6711 C34.5378,33.785 34.7168,33.8501 34.8796,33.8501 C35.0911,33.8501 35.2702,33.7524 35.4004,33.5897 C35.4818,33.4757 35.5143,33.3455 35.5143,33.02 L35.5143,31.9784 C35.5143,31.6691 35.498,31.5715 35.4167,31.4575 C35.3027,31.2622 35.1074,31.1483 34.8796,31.1483 C34.668,31.1483 34.5215,31.2297 34.3587,31.4575 L34.2285,31.4087 Z " fill="#151515"/><text fill="#151515" font-family="&quot;Verdana&quot;" font-size="11.4583" lengthAdjust="spacing" textLength="76.0417" x="51.0417" y="38.7609">Component1</text><line style="stroke:#D3F198;stroke-width:1.0416666666666667;" x1="18.75" x2="134.375" y1="51.8799" y2="51.8799"/><line style="stroke:#D3F198;stroke-width:1.0416666666666667;" x1="18.75" x2="134.375" y1="60.2132" y2="60.2132"/><text fill="#151515" font-family="&quot;Verdana&quot;" font-size="11.4583" lengthAdjust="spacing" textLength="65.625" x="29.1667" y="80.2241">usecase1()</text></g><!--MD5=[db4bc597ef7cc057e5d7dfcb5712f48b]
class Component2--><g id="elem_Component2"><rect codeLine="6" fill="url(#g33ch3fy0a0p60)" height="74.5931" id="Component2" rx="20.8333" ry="20.8333" style="stroke:#D3F198;stroke-width:1.0416666666666667;" width="117.7083" x="171.875" y="17.7083"/><rect fill="url(#g33ch3fy0a0p60)" height="34.1715" rx="20.8333" ry="20.8333" style="stroke:url(#g33ch3fy0a0p60);stroke-width:1.0416666666666667;" width="117.7083" x="171.875" y="17.7083"/><rect fill="url(#g33ch3fy0a0p60)" height="20.8333" style="stroke:url(#g33ch3fy0a0p60);stroke-width:1.0416666666666667;" width="117.7083" x="171.875" y="31.0465"/><rect codeLine="6" fill="none" height="74.5931" id="Component2" rx="20.8333" ry="20.8333" style="stroke:#D3F198;stroke-width:1.0416666666666667;" width="117.7083" x="171.875" y="17.7083"/><ellipse cx="186.4583" cy="34.7941" fill="none" rx="10.4167" ry="10.4167" style="stroke:#6D8B32;stroke-width:1.0416666666666667;"/><path d="M188.3952,31.4087 C187.7116,31.0832 187.2721,30.9855 186.6211,30.9855 C184.7005,30.9855 183.2194,32.4992 183.2194,34.5011 L183.2194,35.3312 C183.2194,37.2355 184.7819,38.619 186.8978,38.619 C187.793,38.619 188.6556,38.3911 189.1927,37.9842 C189.6322,37.6912 189.86,37.3657 189.86,37.0728 C189.86,36.7472 189.5671,36.4543 189.2415,36.4543 C189.0788,36.4543 188.9323,36.5194 188.7858,36.6496 C188.444,37.0076 188.444,37.0076 188.3138,37.0728 C188.0046,37.2681 187.5,37.3657 186.9303,37.3657 C185.4329,37.3657 184.4727,36.5519 184.4727,35.2987 L184.4727,34.5011 C184.4727,33.1828 185.4004,32.2225 186.6699,32.2225 C187.0931,32.2225 187.5488,32.3364 187.8906,32.5317 C188.2487,32.7271 188.3789,32.8898 188.444,33.1828 C188.4928,33.492 188.5091,33.5734 188.6068,33.6711 C188.7044,33.785 188.8835,33.8501 189.0462,33.8501 C189.2578,33.8501 189.4368,33.7524 189.5671,33.5897 C189.6484,33.4757 189.681,33.3455 189.681,33.02 L189.681,31.9784 C189.681,31.6691 189.6647,31.5715 189.5833,31.4575 C189.4694,31.2622 189.2741,31.1483 189.0462,31.1483 C188.8346,31.1483 188.6882,31.2297 188.5254,31.4575 L188.3952,31.4087 Z " fill="#151515"/><text fill="#151515" font-family="&quot;Verdana&quot;" font-size="11.4583" lengthAdjust="spacing" textLength="76.0417" x="205.2083" y="38.7609">Component2</text><line style="stroke:#D3F198;stroke-width:1.0416666666666667;" x1="172.9167" x2="288.5417" y1="51.8799" y2="51.8799"/><line style="stroke:#D3F198;stroke-width:1.0416666666666667;" x1="172.9167" x2="288.5417" y1="60.2132" y2="60.2132"/><text fill="#151515" font-family="&quot;Verdana&quot;" font-size="11.4583" lengthAdjust="spacing" textLength="65.625" x="183.3333" y="80.2241">usecase2()</text></g><!--MD5=[09ce52be0ee7de43c61b6e2d59bf108b]
class Person--><g id="elem_Person"><rect codeLine="9" fill="url(#g33ch3fy0a0p60)" height="98.348" id="Person" rx="20.8333" ry="20.8333" style="stroke:#D3F198;stroke-width:1.0416666666666667;" width="88.5417" x="109.375" y="155.2083"/><rect fill="url(#g33ch3fy0a0p60)" height="34.1715" rx="20.8333" ry="20.8333" style="stroke:url(#g33ch3fy0a0p60);stroke-width:1.0416666666666667;" width="88.5417" x="109.375" y="155.2083"/><rect fill="url(#g33ch3fy0a0p60)" height="20.8333" style="stroke:url(#g33ch3fy0a0p60);stroke-width:1.0416666666666667;" width="88.5417" x="109.375" y="168.5465"/><rect codeLine="9" fill="none" height="98.348" id="Person" rx="20.8333" ry="20.8333" style="stroke:#D3F198;stroke-width:1.0416666666666667;" width="88.5417" x="109.375" y="155.2083"/><ellipse cx="127.2396" cy="172.2941" fill="none" rx="10.4167" ry="10.4167" style="stroke:#6D8B32;stroke-width:1.0416666666666667;"/><path d="M129.1764,168.9087 C128.4928,168.5832 128.0534,168.4855 127.4023,168.4855 C125.4818,168.4855 124.0007,169.9992 124.0007,172.0011 L124.0007,172.8312 C124.0007,174.7355 125.5632,176.119 127.679,176.119 C128.5742,176.119 129.4368,175.8911 129.974,175.4842 C130.4134,175.1912 130.6413,174.8657 130.6413,174.5728 C130.6413,174.2472 130.3483,173.9543 130.0228,173.9543 C129.86,173.9543 129.7135,174.0194 129.5671,174.1496 C129.2253,174.5076 129.2253,174.5076 129.0951,174.5728 C128.7858,174.7681 128.2813,174.8657 127.7116,174.8657 C126.2142,174.8657 125.2539,174.0519 125.2539,172.7987 L125.2539,172.0011 C125.2539,170.6828 126.1816,169.7225 127.4512,169.7225 C127.8743,169.7225 128.3301,169.8364 128.6719,170.0317 C129.0299,170.2271 129.1602,170.3898 129.2253,170.6828 C129.2741,170.992 129.2904,171.0734 129.388,171.1711 C129.4857,171.285 129.6647,171.3501 129.8275,171.3501 C130.0391,171.3501 130.2181,171.2524 130.3483,171.0897 C130.4297,170.9757 130.4622,170.8455 130.4622,170.52 L130.4622,169.4784 C130.4622,169.1691 130.446,169.0715 130.3646,168.9575 C130.2507,168.7622 130.0553,168.6483 129.8275,168.6483 C129.6159,168.6483 129.4694,168.7297 129.3066,168.9575 L129.1764,168.9087 Z " fill="#151515"/><text fill="#151515" font-family="&quot;Verdana&quot;" font-size="11.4583" lengthAdjust="spacing" textLength="39.5833" x="146.7188" y="176.2609">Person</text><line style="stroke:#D3F198;stroke-width:1.0416666666666667;" x1="110.4167" x2="196.875" y1="189.3799" y2="189.3799"/><line style="stroke:#D3F198;stroke-width:1.0416666666666667;" x1="110.4167" x2="196.875" y1="197.7132" y2="197.7132"/><text fill="#151515" font-family="&quot;Verdana&quot;" font-size="11.4583" lengthAdjust="spacing" textLength="65.625" x="120.8333" y="217.7241">usecase1()</text><text fill="#151515" font-family="&quot;Verdana&quot;" font-size="11.4583" lengthAdjust="spacing" textLength="65.625" x="120.8333" y="241.479">usecase2()</text></g><!--MD5=[b1b44ff8609e685d76193962b7f2e467]
class RestHelper--><g id="elem_RestHelper"><rect codeLine="15" fill="url(#g33ch3fy0a0p60)" height="50.8382" id="RestHelper" rx="20.8333" ry="20.8333" style="stroke:#D3F198;stroke-width:1.0416666666666667;" width="107.2917" x="17.7083" y="315.625"/><rect fill="url(#g33ch3fy0a0p60)" height="34.1715" rx="20.8333" ry="20.8333" style="stroke:url(#g33ch3fy0a0p60);stroke-width:1.0416666666666667;" width="107.2917" x="17.7083" y="315.625"/><rect fill="url(#g33ch3fy0a0p60)" height="20.8333" style="stroke:url(#g33ch3fy0a0p60);stroke-width:1.0416666666666667;" width="107.2917" x="17.7083" y="328.9632"/><rect codeLine="15" fill="none" height="50.8382" id="RestHelper" rx="20.8333" ry="20.8333" style="stroke:#D3F198;stroke-width:1.0416666666666667;" width="107.2917" x="17.7083" y="315.625"/><ellipse cx="32.2917" cy="332.7108" fill="none" rx="10.4167" ry="10.4167" style="stroke:#6D8B32;stroke-width:1.0416666666666667;"/><path d="M34.2285,329.3254 C33.5449,328.9998 33.1055,328.9022 32.4544,328.9022 C30.5339,328.9022 29.0527,330.4159 29.0527,332.4178 L29.0527,333.2479 C29.0527,335.1522 30.6152,336.5356 32.7311,336.5356 C33.6263,336.5356 34.4889,336.3078 35.026,335.9009 C35.4655,335.6079 35.6934,335.2824 35.6934,334.9894 C35.6934,334.6639 35.4004,334.3709 35.0749,334.3709 C34.9121,334.3709 34.7656,334.436 34.6191,334.5662 C34.2773,334.9243 34.2773,334.9243 34.1471,334.9894 C33.8379,335.1847 33.3333,335.2824 32.7637,335.2824 C31.2663,335.2824 30.306,334.4686 30.306,333.2153 L30.306,332.4178 C30.306,331.0994 31.2337,330.1392 32.5033,330.1392 C32.9264,330.1392 33.3822,330.2531 33.724,330.4484 C34.082,330.6437 34.2122,330.8065 34.2773,331.0994 C34.3262,331.4087 34.3424,331.4901 34.4401,331.5877 C34.5378,331.7017 34.7168,331.7668 34.8796,331.7668 C35.0911,331.7668 35.2702,331.6691 35.4004,331.5063 C35.4818,331.3924 35.5143,331.2622 35.5143,330.9367 L35.5143,329.895 C35.5143,329.5858 35.498,329.4881 35.4167,329.3742 C35.3027,329.1789 35.1074,329.0649 34.8796,329.0649 C34.668,329.0649 34.5215,329.1463 34.3587,329.3742 L34.2285,329.3254 Z " fill="#151515"/><text fill="#151515" font-family="&quot;Verdana&quot;" font-size="11.4583" lengthAdjust="spacing" textLength="65.625" x="51.0417" y="336.6776">RestHelper</text><line style="stroke:#D3F198;stroke-width:1.0416666666666667;" x1="18.75" x2="123.9583" y1="349.7965" y2="349.7965"/><line style="stroke:#D3F198;stroke-width:1.0416666666666667;" x1="18.75" x2="123.9583" y1="358.1299" y2="358.1299"/></g><!--MD5=[c8dbb12f6834845164c8d9f917581b9c]
class DataAccessHelper--><g id="elem_DataAccessHelper"><rect codeLine="16" fill="url(#g33ch3fy0a0p60)" height="50.8382" id="DataAccessHelper" rx="20.8333" ry="20.8333" style="stroke:#D3F198;stroke-width:1.0416666666666667;" width="151.0417" x="161.4583" y="315.625"/><rect fill="url(#g33ch3fy0a0p60)" height="34.1715" rx="20.8333" ry="20.8333" style="stroke:url(#g33ch3fy0a0p60);stroke-width:1.0416666666666667;" width="151.0417" x="161.4583" y="315.625"/><rect fill="url(#g33ch3fy0a0p60)" height="20.8333" style="stroke:url(#g33ch3fy0a0p60);stroke-width:1.0416666666666667;" width="151.0417" x="161.4583" y="328.9632"/><rect codeLine="16" fill="none" height="50.8382" id="DataAccessHelper" rx="20.8333" ry="20.8333" style="stroke:#D3F198;stroke-width:1.0416666666666667;" width="151.0417" x="161.4583" y="315.625"/><ellipse cx="176.0417" cy="332.7108" fill="none" rx="10.4167" ry="10.4167" style="stroke:#6D8B32;stroke-width:1.0416666666666667;"/><path d="M177.9785,329.3254 C177.2949,328.9998 176.8555,328.9022 176.2044,328.9022 C174.2839,328.9022 172.8027,330.4159 172.8027,332.4178 L172.8027,333.2479 C172.8027,335.1522 174.3652,336.5356 176.4811,336.5356 C177.3763,336.5356 178.2389,336.3078 178.776,335.9009 C179.2155,335.6079 179.4434,335.2824 179.4434,334.9894 C179.4434,334.6639 179.1504,334.3709 178.8249,334.3709 C178.6621,334.3709 178.5156,334.436 178.3691,334.5662 C178.0273,334.9243 178.0273,334.9243 177.8971,334.9894 C177.5879,335.1847 177.0833,335.2824 176.5137,335.2824 C175.0163,335.2824 174.056,334.4686 174.056,333.2153 L174.056,332.4178 C174.056,331.0994 174.9837,330.1392 176.2533,330.1392 C176.6764,330.1392 177.1322,330.2531 177.474,330.4484 C177.832,330.6437 177.9622,330.8065 178.0273,331.0994 C178.0762,331.4087 178.0924,331.4901 178.1901,331.5877 C178.2878,331.7017 178.4668,331.7668 178.6296,331.7668 C178.8411,331.7668 179.0202,331.6691 179.1504,331.5063 C179.2318,331.3924 179.2643,331.2622 179.2643,330.9367 L179.2643,329.895 C179.2643,329.5858 179.248,329.4881 179.1667,329.3742 C179.0527,329.1789 178.8574,329.0649 178.6296,329.0649 C178.418,329.0649 178.2715,329.1463 178.1087,329.3742 L177.9785,329.3254 Z " fill="#151515"/><text fill="#151515" font-family="&quot;Verdana&quot;" font-size="11.4583" lengthAdjust="spacing" textLength="109.375" x="194.7917" y="336.6776">DataAccessHelper</text><line style="stroke:#D3F198;stroke-width:1.0416666666666667;" x1="162.5" x2="311.4583" y1="349.7965" y2="349.7965"/><line style="stroke:#D3F198;stroke-width:1.0416666666666667;" x1="162.5" x2="311.4583" y1="358.1299" y2="358.1299"/></g><!--MD5=[a31efd8ba3b5d20ff9f0ac79263d6671]
link Component1 to Person--><g id="link_Component1_Person"><path codeLine="18" d="M95.815,92.9344 C104.9001,110.2448 115.9119,131.226 125.8781,150.2167 " fill="none" id="Component1-to-Person" style="stroke:#B5E853;stroke-width:3.125;"/><polygon fill="#B5E853" points="128.3875,154.999,127.7214,144.7614,125.9676,150.3869,120.3421,148.6332,128.3875,154.999" style="stroke:#B5E853;stroke-width:3.125;"/></g><!--MD5=[461eb49602c7e224bb004ddde0b776ef]
link Component2 to Person--><g id="link_Component2_Person"><path codeLine="19" d="M211.4771,92.9344 C202.3917,110.2448 191.3802,131.226 181.4135,150.2167 " fill="none" id="Component2-to-Person" style="stroke:#B5E853;stroke-width:3.125;"/><polygon fill="#B5E853" points="178.9042,154.999,186.9496,148.6332,181.324,150.3869,179.5703,144.7614,178.9042,154.999" style="stroke:#B5E853;stroke-width:3.125;"/></g><!--MD5=[fdd5b4e13095faf54122f311f8c68196]
link Person to RestHelper--><g id="link_Person_RestHelper"><path codeLine="20" d="M124.401,253.1469 C112.662,272.3906 99.5088,293.9521 89.2366,310.7905 " fill="none" id="Person-to-RestHelper" style="stroke:#B5E853;stroke-width:3.125;"/><polygon fill="#B5E853" points="86.4193,315.4088,94.8587,309.5755,89.1318,310.9625,87.7447,305.2355,86.4193,315.4088" style="stroke:#B5E853;stroke-width:3.125;"/></g><!--MD5=[85719eb5c0dec3756095fa098dedd498]
link Person to DataAccessHelper--><g id="link_Person_DataAccessHelper"><path codeLine="21" d="M183.2604,253.1469 C195.149,272.3906 208.4677,293.9521 218.8708,310.7905 " fill="none" id="Person-to-DataAccessHelper" style="stroke:#B5E853;stroke-width:3.125;"/><polygon fill="#B5E853" points="221.7229,315.4088,220.3395,305.2432,218.9852,310.978,213.2504,309.6236,221.7229,315.4088" style="stroke:#B5E853;stroke-width:3.125;"/></g><!--MD5=[3f9b876e169acc79e93908ff35f38b39]
@startuml
!theme hacker
class Component1 {
  usecase1()
}

class  Component2{
  usecase2()
}
class Person{
  usecase1()
  usecase2()
}


class RestHelper
class DataAccessHelper

Component1 - -> Person
Component2 - -> Person
Person - -> RestHelper
Person - -> DataAccessHelper
@enduml

@startuml



skinparam BackgroundColor transparent
skinparam useBetaStyle false






<style>
  root {
    BackgroundColor transparent
    FontColor #151515
    HyperLinkColor $ORANGE
    LineColor #6d8b32
    LineThickness 1
    Margin 10
    Padding 6
    Shadowing 0.0
  }
  node {
   Padding 15
   roundcorner 20
   BackgroundColor #b5e853-#6d8b32
  }
  caption {
    LineThickness 0
  }
  footer {
    LineThickness 0
  }
  groupHeader {
    BackgroundColor #6a9fb5
    FontColor #aa759f
    FontStyle bold
  }
  header {
    LineThickness 0
  }
  referenceHeader {
    BackgroundColor transparent
    FontColor #eaeaea
    FontStyle bold
  }
  separator {
    BackgroundColor $FGCOLOR
    FontColor transparent
    FontStyle bold
  }
  title {
	FontSize 20
	BorderRoundCorner            8
	BorderThickness 	         1
	BackgroundColor  #88b2c4-#6a9fb5
	FontColor #b5e853
	BorderColor #6a9fb5
  }
  nwdiagDiagram {
	network {
			FontColor #151515
	BorderColor #d3f198
	BackgroundColor #d3f198-#b5e853    
		LineColor #b5e853
		LineThickness 1.0
		FontColor #d3f198
	}
	server {
			FontColor #151515
	BorderColor #d3f198
	BackgroundColor #d3f198-#b5e853
	}
	arrow {
		FontColor #d3f198
		LineColor #d3f198
	}
	group {
		BackGroundColor #151515
		LineColor $LIGHT_DARK
		LineThickness 2.0
		Margin 5
		Padding 5
	}
  }
  ganttDiagram {
	task {
			FontColor #151515
	BorderColor #d3f198
	BackgroundColor #d3f198-#b5e853
		LineColor #b5e853
		Margin 10
		Padding 6
	}
	note {
		FontColor $INFO_TEXT
		LineColor #885E7F
		BackGroundColor #aa759f
	}
	separator {
		LineColor #6a9fb5
		BackGroundColor #6a9fb5-#557f91
		FontColor #fefefe
	}
	milestone {
		FontColor #aa759f
		FontSize 16
		FontStyle italic
		BackGroundColor #6a9fb5
		LineColor #557f91
	}
	timeline {
		BackgroundColor #6a9fb5
		FontColor #fefefe
	}
	closed {
		BackgroundColor $WARNING_DARK
		FontColor #151515
	}
  }
</style>
skinparam defaultFontName       "Verdana"
skinparam defaultFontSize       12
skinparam dpi                   100
skinparam shadowing             false
skinparam roundcorner           40
skinparam ParticipantPadding    40
skinparam BoxPadding            40
skinparam Padding               5
skinparam ArrowColor            #eaeaea
skinparam stereotype {
    CBackgroundColor #557f91
    CBorderColor #88b2c4
    ABackgroundColor #a6ba7a
    ABorderColor $SUCCESS_DARK
    IBackgroundColor #bd6768
    IBorderColor $DANGER_DARK
    EBackgroundColor #f6cc91
    EBorderColor $WARNING_DARK
    NBackgroundColor #bb91b2
    NBorderColor #885E7F
}
skinparam title {
	FontColor	                 #b5e853
	BorderColor	                 #b5e853
	FontSize	    	         20
	BorderRoundCorner            8
	BorderThickness 	         1
	BackgroundColor              #151515-black
}


skinparam legend {
	BackgroundColor #6a9fb5
	BorderColor #557f91
	FontColor #eaeaea
}

skinparam swimlane {
	BorderColor #aa759f
	BorderThickness 2
	TitleBackgroundColor  #88b2c4-#6a9fb5
	TitleFontColor #b5e853
}


skinparam activity {
		FontColor #151515
	BorderColor #d3f198
	BackgroundColor #d3f198-#b5e853
	BarColor #90a959
	StartColor #aa759f
	EndColor #aa759f
	DiamondBackgroundColor #88b2c4-#6a9fb5
  	DiamondBorderColor #88b2c4
  	DiamondFontColor #fefefe
}


skinparam participant {
		FontColor #151515
	BorderColor #d3f198
	BackgroundColor #d3f198-#b5e853
	BorderThickness 2
}


skinparam actor {
		FontColor #151515
	BorderColor #d3f198
	BackgroundColor #d3f198-#b5e853
	FontColor #eaeaea
}


skinparam arrow {
	Thickness 3
	Color #b5e853
	FontColor $FGCOLOR
}


skinparam sequence {
	BorderColor #b5e853
	TitleFontColor #b5e853
	BackgroundColor transparent
	StartColor #b5e853
	EndColor #b5e853
	BoxBackgroundColor transparent
	BoxBorderColor #eaeaea
	BoxFontColor #eaeaea
	DelayFontColor #eaeaea
	LifeLineBorderColor #6a9fb5
	LifeLineBorderThickness 2
	LifeLineBackgroundColor #557f91
	GroupBackgroundColor #151515
	GroupBorderColor #eaeaea
	GroupFontColor #eaeaea
	GroupHeaderFontColor #aa759f
	GroupHeaderBackgroundColor transparent
	DividerBackgroundColor #eaeaea
    DividerBorderColor #eaeaea
    DividerBorderThickness 2
    DividerFontColor #151515
	ReferenceBackgroundColor transparent
	ReferenceBorderColor #eaeaea
	ReferenceFontColor #eaeaea
	ReferenceHeaderBackgroundColor #151515
	StereotypeFontColor #151515
}


skinparam partition {
	BorderColor #b5e853
	FontColor #b5e853
	BackgroundColor #151515-black
}


skinparam collections {
		FontColor #151515
	BorderColor #d3f198
	BackgroundColor #d3f198-#b5e853
}


skinparam control {
		FontColor #151515
	BorderColor #d3f198
	BackgroundColor #d3f198-#b5e853
	FontColor #eaeaea
}


skinparam entity {
		FontColor #151515
	BorderColor #d3f198
	BackgroundColor #d3f198-#b5e853
	FontColor #eaeaea
}


skinparam boundary {
		FontColor #151515
	BorderColor #d3f198
	BackgroundColor #d3f198-#b5e853
	FontColor #eaeaea
}


skinparam agent {
	BackgroundColor #f6cc91-#f4bf75
	BorderColor #f6cc91
	FontColor #eaeaea
}


skinparam note {
	BorderThickness 1
	BackgroundColor #bb91b2-#885E7F
	BorderColor #885E7F
	FontColor $WHITE
}


skinparam artifact {
	BackgroundColor #eaeaea
	BorderColor white
	FontColor #151515
}


skinparam component {
		FontColor #151515
	BorderColor #d3f198
	BackgroundColor #d3f198-#b5e853
}


skinparam interface {
	BackgroundColor  #bd6768-#ac4142
	BorderColor  #bd6768
	FontColor #eaeaea
}


skinparam storage {
	BackgroundColor #f6cc91-#f4bf75
  	BorderColor #f6cc91
	FontColor #151515
}


skinparam node {
	BackgroundColor  #151515-black
	BorderColor #d3f198
	FontColor #eaeaea
}


skinparam cloud {
	BackgroundColor transparent
	BorderColor #eaeaea
	FontColor #eaeaea
}


skinparam database {
	BackgroundColor  #151515-black
	BorderColor #d3f198
	FontColor #eaeaea
}


skinparam class {
		FontColor #151515
	BorderColor #d3f198
	BackgroundColor #d3f198-#b5e853
	HeaderBackgroundColor #d3f198-#b5e853
	StereotypeFontColor #eaeaea
	BorderThickness 1
	AttributeFontColor #151515
	AttributeFontSize 11
}


skinparam object {
		FontColor #151515
	BorderColor #d3f198
	BackgroundColor #d3f198-#b5e853
	StereotypeFontColor #eaeaea
	BorderThickness 1
	AttributeFontColor #151515
	AttributeFontSize 11
}


skinparam usecase {
		FontColor #151515
	BorderColor #d3f198
	BackgroundColor #d3f198-#b5e853
	BorderThickness 2
	StereotypeFontColor #b5e853
}


skinparam rectangle {
	BackgroundColor transparent
	BorderColor #b5e853
	BorderThickness 2
	FontColor #6d8b32
	StereotypeFontColor #b5e853
}


skinparam package {
	BackgroundColor #151515
  	BorderColor #b5e853
	FontColor #b5e853
	BorderThickness 2
}


skinparam folder {
	BackgroundColor #151515-black
  	BorderColor #f4bf75
	FontColor #f4bf75
	BorderThickness 2
}


skinparam frame {
	BackgroundColor #151515-black
  	BorderColor #aa759f
	FontColor #aa759f
	BorderThickness 2
}


skinparam state {
		FontColor #151515
	BorderColor #d3f198
	BackgroundColor #d3f198-#b5e853
	StartColor #aa759f
	EndColor #aa759f
	AttributeFontColor #fefefe
	AttributeFontSize 11
}


skinparam queue {
		FontColor #151515
	BorderColor #d3f198
	BackgroundColor #d3f198-#b5e853
}


skinparam card {
	BackgroundColor #bb91b2-#aa759f
	BorderColor #bb91b2
	FontColor $INFO_TEXT
}


skinparam file {
	BackgroundColor #88b2c4-#6a9fb5
	BorderColor #88b2c4
	FontColor #eaeaea
}


skinparam stack {
		FontColor #151515
	BorderColor #d3f198
	BackgroundColor #d3f198-#b5e853
}

<style>
mindmapDiagram, wbsDiagram {
    element {
	    	FontColor #151515
	BorderColor #d3f198
	BackgroundColor #d3f198-#b5e853
	}
	:depth(0) {
        fontSize 16
        fontStyle bold
        fontColor #6a9fb5
    }
    :depth(1) {
        fontSize 14
        padding 5
        fontStyle bold
    }
    :depth(2) {
        fontSize 12
        padding 4
    }
    :depth(3) {
        fontSize 11
        padding 3
        fontColor #aa759f
    }

}
</style>


class Component1 {
  usecase1()
}

class  Component2{
  usecase2()
}
class Person{
  usecase1()
  usecase2()
}


class RestHelper
class DataAccessHelper

Component1 - -> Person
Component2 - -> Person
Person - -> RestHelper
Person - -> DataAccessHelper
@enduml

PlantUML version 1.2022.13beta7(Unknown compile time)
(GPL source distribution)
Java Runtime: Java(TM) SE Runtime Environment
JVM: Java HotSpot(TM) 64-Bit Server VM
Default Encoding: UTF-8
Language: en
Country: US
--></g></svg>