<?xml version="1.0" encoding="UTF-8" standalone="no"?>
<svg xmlns="http://www.w3.org/2000/svg" xmlns:xlink="http://www.w3.org/1999/xlink" contentStyleType="text/css" height="143.75px" preserveAspectRatio="none" style="width:892px;height:143px;" version="1.1" viewBox="0 0 892 143" width="892.7083px" zoomAndPan="magnify"><defs><linearGradient id="g1dhrc6romltga0" x1="50%" x2="50%" y1="0%" y2="100%"><stop offset="0%" stop-color="#D3F198"/><stop offset="100%" stop-color="#B5E853"/></linearGradient></defs><g><g id="elem_SourceUser"><rect fill="url(#g1dhrc6romltga0)" height="44.5882" rx="20.8333" ry="20.8333" style="stroke:#D3F198;stroke-width:1.0416666666666667;" width="93.75" x="17.7083" y="17.7083"/><text fill="#151515" font-family="&quot;Verdana&quot;" font-size="11.4583" lengthAdjust="spacing" textLength="68.75" x="30.2083" y="35.6359">SourceUser</text><line style="stroke:#D3F198;stroke-width:1.0416666666666667;" x1="18.75" x2="110.4167" y1="45.6299" y2="45.6299"/></g><g id="elem_FilterSecurity"><rect fill="url(#g1dhrc6romltga0)" height="44.5882" rx="20.8333" ry="20.8333" style="stroke:#D3F198;stroke-width:1.0416666666666667;" width="103.125" x="142.7083" y="17.7083"/><text fill="#151515" font-family="&quot;Verdana&quot;" font-size="11.4583" lengthAdjust="spacing" textLength="78.125" x="155.2083" y="35.6359">FilterSecurity</text><line style="stroke:#D3F198;stroke-width:1.0416666666666667;" x1="143.75" x2="244.7917" y1="45.6299" y2="45.6299"/></g><g id="elem_FilterInput"><rect fill="url(#g1dhrc6romltga0)" height="44.5882" rx="20.8333" ry="20.8333" style="stroke:#D3F198;stroke-width:1.0416666666666667;" width="83.3333" x="277.0833" y="17.7083"/><text fill="#151515" font-family="&quot;Verdana&quot;" font-size="11.4583" lengthAdjust="spacing" textLength="58.3333" x="289.5833" y="35.6359">FilterInput</text><line style="stroke:#D3F198;stroke-width:1.0416666666666667;" x1="278.125" x2="359.375" y1="45.6299" y2="45.6299"/></g><g id="elem_MapToQuery"><rect fill="url(#g1dhrc6romltga0)" height="44.5882" rx="20.8333" ry="20.8333" style="stroke:#D3F198;stroke-width:1.0416666666666667;" width="100" x="391.6667" y="17.7083"/><text fill="#151515" font-family="&quot;Verdana&quot;" font-size="11.4583" lengthAdjust="spacing" textLength="75" x="404.1667" y="35.6359">MapToQuery</text><line style="stroke:#D3F198;stroke-width:1.0416666666666667;" x1="392.7083" x2="490.625" y1="45.6299" y2="45.6299"/></g><g id="elem_MapToEntity"><rect fill="url(#g1dhrc6romltga0)" height="44.5882" rx="20.8333" ry="20.8333" style="stroke:#D3F198;stroke-width:1.0416666666666667;" width="96.875" x="522.9167" y="17.7083"/><text fill="#151515" font-family="&quot;Verdana&quot;" font-size="11.4583" lengthAdjust="spacing" textLength="71.875" x="535.4167" y="35.6359">MapToEntity</text><line style="stroke:#D3F198;stroke-width:1.0416666666666667;" x1="523.9583" x2="618.75" y1="45.6299" y2="45.6299"/></g><g id="elem_MapToResponse"><rect fill="url(#g1dhrc6romltga0)" height="44.5882" rx="20.8333" ry="20.8333" style="stroke:#D3F198;stroke-width:1.0416666666666667;" width="121.875" x="651.0417" y="17.7083"/><text fill="#151515" font-family="&quot;Verdana&quot;" font-size="11.4583" lengthAdjust="spacing" textLength="96.875" x="663.5417" y="35.6359">MapToResponse</text><line style="stroke:#D3F198;stroke-width:1.0416666666666667;" x1="652.0833" x2="771.875" y1="45.6299" y2="45.6299"/></g><g id="elem_Repository"><rect fill="url(#g1dhrc6romltga0)" height="44.5882" rx="20.8333" ry="20.8333" style="stroke:#D3F198;stroke-width:1.0416666666666667;" width="87.5" x="527.6042" y="88.5417"/><text fill="#151515" font-family="&quot;Verdana&quot;" font-size="11.4583" lengthAdjust="spacing" textLength="62.5" x="540.1042" y="106.4692">Repository</text><line style="stroke:#D3F198;stroke-width:1.0416666666666667;" x1="528.6458" x2="614.0625" y1="116.4632" y2="116.4632"/></g><g id="elem_SinkUser"><rect fill="url(#g1dhrc6romltga0)" height="44.5882" rx="20.8333" ry="20.8333" style="stroke:#D3F198;stroke-width:1.0416666666666667;" width="77.0833" x="804.1667" y="17.7083"/><text fill="#151515" font-family="&quot;Verdana&quot;" font-size="11.4583" lengthAdjust="spacing" textLength="52.0833" x="816.6667" y="35.6359">SinkUser</text><line style="stroke:#D3F198;stroke-width:1.0416666666666667;" x1="805.2083" x2="880.2083" y1="45.6299" y2="45.6299"/></g><!--MD5=[31a18e7d2aaeb9031ae0c26ea0a9eb82]
link SourceUser to FilterSecurity--><g id="link_SourceUser_FilterSecurity"><path codeLine="15" d="M111.693,40.1042 C119.9696,40.1042 128.6781,40.1042 137.2,40.1042 " fill="none" id="SourceUser-to-FilterSecurity" style="stroke:#B5E853;stroke-width:3.125;"/><polygon fill="#B5E853" points="142.476,40.1042,133.101,35.9375,137.2677,40.1042,133.101,44.2708,142.476,40.1042" style="stroke:#B5E853;stroke-width:3.125;"/></g><!--MD5=[c1aa5435f1d55782c475a4c5d27ce8a5]
link FilterSecurity to FilterInput--><g id="link_FilterSecurity_FilterInput"><path codeLine="16" d="M246.1563,40.1042 C254.4813,40.1042 263.0688,40.1042 271.2802,40.1042 " fill="none" id="FilterSecurity-to-FilterInput" style="stroke:#B5E853;stroke-width:3.125;"/><polygon fill="#B5E853" points="276.8969,40.1042,267.5219,35.9375,271.6885,40.1042,267.5219,44.2708,276.8969,40.1042" style="stroke:#B5E853;stroke-width:3.125;"/></g><!--MD5=[6b36a375b8e6831beef456f4a71c6ec4]
link FilterInput to MapToQuery--><g id="link_FilterInput_MapToQuery"><path codeLine="17" d="M360.7,40.1042 C368.8646,40.1042 377.5615,40.1042 386.101,40.1042 " fill="none" id="FilterInput-to-MapToQuery" style="stroke:#B5E853;stroke-width:3.125;"/><polygon fill="#B5E853" points="391.3906,40.1042,382.0156,35.9375,386.1823,40.1042,382.0156,44.2708,391.3906,40.1042" style="stroke:#B5E853;stroke-width:3.125;"/></g><!--MD5=[0567a2d4376b01d26ea49564c3a50624]
link MapToQuery to MapToEntity--><g id="link_MapToQuery_MapToEntity"><path codeLine="18" d="M491.6781,40.1042 C500.0594,40.1042 508.8021,40.1042 517.2833,40.1042 " fill="none" id="MapToQuery-to-MapToEntity" style="stroke:#B5E853;stroke-width:3.125;"/><polygon fill="#B5E853" points="522.525,40.1042,513.15,35.9375,517.3167,40.1042,513.15,44.2708,522.525,40.1042" style="stroke:#B5E853;stroke-width:3.125;"/></g><!--MD5=[7d1cbc4c59fa75f91494d59edee6ecec]
link MapToEntity to Repository--><g id="link_MapToEntity_Repository"><path codeLine="19" d="M571.3542,62.8017 C571.3542,69.6345 571.3542,76.4674 571.3542,83.3002 " fill="none" id="MapToEntity-to-Repository" style="stroke:#B5E853;stroke-width:3.125;"/><polygon fill="#B5E853" points="571.3542,88.5254,575.5208,79.1504,571.3542,83.3171,567.1875,79.1504,571.3542,88.5254" style="stroke:#B5E853;stroke-width:3.125;"/></g><!--MD5=[c1a3a2c7ae301c844d72337b8fc209ac]
link MapToEntity to MapToResponse--><g id="link_MapToEntity_MapToResponse"><path codeLine="20" d="M620.074,40.1042 C628.2417,40.1042 636.8531,40.1042 645.3896,40.1042 " fill="none" id="MapToEntity-to-MapToResponse" style="stroke:#B5E853;stroke-width:3.125;"/><polygon fill="#B5E853" points="650.6906,40.1042,641.3156,35.9375,645.4823,40.1042,641.3156,44.2708,650.6906,40.1042" style="stroke:#B5E853;stroke-width:3.125;"/></g><!--MD5=[091ead32d6aced38f4778714792e0693]
link MapToResponse to SinkUser--><g id="link_MapToResponse_SinkUser"><path codeLine="21" d="M773.2,40.1042 C781.7021,40.1042 790.3,40.1042 798.3979,40.1042 " fill="none" id="MapToResponse-to-SinkUser" style="stroke:#B5E853;stroke-width:3.125;"/><polygon fill="#B5E853" points="803.9167,40.1042,794.5417,35.9375,798.7083,40.1042,794.5417,44.2708,803.9167,40.1042" style="stroke:#B5E853;stroke-width:3.125;"/></g><!--MD5=[f836aa7600967d03f8a27dd96f0f7fce]
@startuml
!theme hacker
left to right direction
skinparam nodesep 25
skinparam ranksep 30

object SourceUser
object FilterSecurity
object FilterInput
object MapToQuery
object MapToEntity
object MapToResponse
object Repository
object SinkUser

SourceUser- -> FilterSecurity
FilterSecurity- -> FilterInput
FilterInput - -> MapToQuery
MapToQuery- -> MapToEntity
MapToEntity -> Repository
MapToEntity- -> MapToResponse
MapToResponse - -> SinkUser
@enduml

@startuml



skinparam BackgroundColor transparent
skinparam useBetaStyle false






<style>
  root {
    BackgroundColor transparent
    FontColor #151515
    HyperLinkColor $ORANGE
    LineColor #6d8b32
    LineThickness 1
    Margin 10
    Padding 6
    Shadowing 0.0
  }
  node {
   Padding 15
   roundcorner 20
   BackgroundColor #b5e853-#6d8b32
  }
  caption {
    LineThickness 0
  }
  footer {
    LineThickness 0
  }
  groupHeader {
    BackgroundColor #6a9fb5
    FontColor #aa759f
    FontStyle bold
  }
  header {
    LineThickness 0
  }
  referenceHeader {
    BackgroundColor transparent
    FontColor #eaeaea
    FontStyle bold
  }
  separator {
    BackgroundColor $FGCOLOR
    FontColor transparent
    FontStyle bold
  }
  title {
	FontSize 20
	BorderRoundCorner            8
	BorderThickness 	         1
	BackgroundColor  #88b2c4-#6a9fb5
	FontColor #b5e853
	BorderColor #6a9fb5
  }
  nwdiagDiagram {
	network {
			FontColor #151515
	BorderColor #d3f198
	BackgroundColor #d3f198-#b5e853    
		LineColor #b5e853
		LineThickness 1.0
		FontColor #d3f198
	}
	server {
			FontColor #151515
	BorderColor #d3f198
	BackgroundColor #d3f198-#b5e853
	}
	arrow {
		FontColor #d3f198
		LineColor #d3f198
	}
	group {
		BackGroundColor #151515
		LineColor $LIGHT_DARK
		LineThickness 2.0
		Margin 5
		Padding 5
	}
  }
  ganttDiagram {
	task {
			FontColor #151515
	BorderColor #d3f198
	BackgroundColor #d3f198-#b5e853
		LineColor #b5e853
		Margin 10
		Padding 6
	}
	note {
		FontColor $INFO_TEXT
		LineColor #885E7F
		BackGroundColor #aa759f
	}
	separator {
		LineColor #6a9fb5
		BackGroundColor #6a9fb5-#557f91
		FontColor #fefefe
	}
	milestone {
		FontColor #aa759f
		FontSize 16
		FontStyle italic
		BackGroundColor #6a9fb5
		LineColor #557f91
	}
	timeline {
		BackgroundColor #6a9fb5
		FontColor #fefefe
	}
	closed {
		BackgroundColor $WARNING_DARK
		FontColor #151515
	}
  }
</style>
skinparam defaultFontName       "Verdana"
skinparam defaultFontSize       12
skinparam dpi                   100
skinparam shadowing             false
skinparam roundcorner           40
skinparam ParticipantPadding    40
skinparam BoxPadding            40
skinparam Padding               5
skinparam ArrowColor            #eaeaea
skinparam stereotype {
    CBackgroundColor #557f91
    CBorderColor #88b2c4
    ABackgroundColor #a6ba7a
    ABorderColor $SUCCESS_DARK
    IBackgroundColor #bd6768
    IBorderColor $DANGER_DARK
    EBackgroundColor #f6cc91
    EBorderColor $WARNING_DARK
    NBackgroundColor #bb91b2
    NBorderColor #885E7F
}
skinparam title {
	FontColor	                 #b5e853
	BorderColor	                 #b5e853
	FontSize	    	         20
	BorderRoundCorner            8
	BorderThickness 	         1
	BackgroundColor              #151515-black
}


skinparam legend {
	BackgroundColor #6a9fb5
	BorderColor #557f91
	FontColor #eaeaea
}

skinparam swimlane {
	BorderColor #aa759f
	BorderThickness 2
	TitleBackgroundColor  #88b2c4-#6a9fb5
	TitleFontColor #b5e853
}


skinparam activity {
		FontColor #151515
	BorderColor #d3f198
	BackgroundColor #d3f198-#b5e853
	BarColor #90a959
	StartColor #aa759f
	EndColor #aa759f
	DiamondBackgroundColor #88b2c4-#6a9fb5
  	DiamondBorderColor #88b2c4
  	DiamondFontColor #fefefe
}


skinparam participant {
		FontColor #151515
	BorderColor #d3f198
	BackgroundColor #d3f198-#b5e853
	BorderThickness 2
}


skinparam actor {
		FontColor #151515
	BorderColor #d3f198
	BackgroundColor #d3f198-#b5e853
	FontColor #eaeaea
}


skinparam arrow {
	Thickness 3
	Color #b5e853
	FontColor $FGCOLOR
}


skinparam sequence {
	BorderColor #b5e853
	TitleFontColor #b5e853
	BackgroundColor transparent
	StartColor #b5e853
	EndColor #b5e853
	BoxBackgroundColor transparent
	BoxBorderColor #eaeaea
	BoxFontColor #eaeaea
	DelayFontColor #eaeaea
	LifeLineBorderColor #6a9fb5
	LifeLineBorderThickness 2
	LifeLineBackgroundColor #557f91
	GroupBackgroundColor #151515
	GroupBorderColor #eaeaea
	GroupFontColor #eaeaea
	GroupHeaderFontColor #aa759f
	GroupHeaderBackgroundColor transparent
	DividerBackgroundColor #eaeaea
    DividerBorderColor #eaeaea
    DividerBorderThickness 2
    DividerFontColor #151515
	ReferenceBackgroundColor transparent
	ReferenceBorderColor #eaeaea
	ReferenceFontColor #eaeaea
	ReferenceHeaderBackgroundColor #151515
	StereotypeFontColor #151515
}


skinparam partition {
	BorderColor #b5e853
	FontColor #b5e853
	BackgroundColor #151515-black
}


skinparam collections {
		FontColor #151515
	BorderColor #d3f198
	BackgroundColor #d3f198-#b5e853
}


skinparam control {
		FontColor #151515
	BorderColor #d3f198
	BackgroundColor #d3f198-#b5e853
	FontColor #eaeaea
}


skinparam entity {
		FontColor #151515
	BorderColor #d3f198
	BackgroundColor #d3f198-#b5e853
	FontColor #eaeaea
}


skinparam boundary {
		FontColor #151515
	BorderColor #d3f198
	BackgroundColor #d3f198-#b5e853
	FontColor #eaeaea
}


skinparam agent {
	BackgroundColor #f6cc91-#f4bf75
	BorderColor #f6cc91
	FontColor #eaeaea
}


skinparam note {
	BorderThickness 1
	BackgroundColor #bb91b2-#885E7F
	BorderColor #885E7F
	FontColor $WHITE
}


skinparam artifact {
	BackgroundColor #eaeaea
	BorderColor white
	FontColor #151515
}


skinparam component {
		FontColor #151515
	BorderColor #d3f198
	BackgroundColor #d3f198-#b5e853
}


skinparam interface {
	BackgroundColor  #bd6768-#ac4142
	BorderColor  #bd6768
	FontColor #eaeaea
}


skinparam storage {
	BackgroundColor #f6cc91-#f4bf75
  	BorderColor #f6cc91
	FontColor #151515
}


skinparam node {
	BackgroundColor  #151515-black
	BorderColor #d3f198
	FontColor #eaeaea
}


skinparam cloud {
	BackgroundColor transparent
	BorderColor #eaeaea
	FontColor #eaeaea
}


skinparam database {
	BackgroundColor  #151515-black
	BorderColor #d3f198
	FontColor #eaeaea
}


skinparam class {
		FontColor #151515
	BorderColor #d3f198
	BackgroundColor #d3f198-#b5e853
	HeaderBackgroundColor #d3f198-#b5e853
	StereotypeFontColor #eaeaea
	BorderThickness 1
	AttributeFontColor #151515
	AttributeFontSize 11
}


skinparam object {
		FontColor #151515
	BorderColor #d3f198
	BackgroundColor #d3f198-#b5e853
	StereotypeFontColor #eaeaea
	BorderThickness 1
	AttributeFontColor #151515
	AttributeFontSize 11
}


skinparam usecase {
		FontColor #151515
	BorderColor #d3f198
	BackgroundColor #d3f198-#b5e853
	BorderThickness 2
	StereotypeFontColor #b5e853
}


skinparam rectangle {
	BackgroundColor transparent
	BorderColor #b5e853
	BorderThickness 2
	FontColor #6d8b32
	StereotypeFontColor #b5e853
}


skinparam package {
	BackgroundColor #151515
  	BorderColor #b5e853
	FontColor #b5e853
	BorderThickness 2
}


skinparam folder {
	BackgroundColor #151515-black
  	BorderColor #f4bf75
	FontColor #f4bf75
	BorderThickness 2
}


skinparam frame {
	BackgroundColor #151515-black
  	BorderColor #aa759f
	FontColor #aa759f
	BorderThickness 2
}


skinparam state {
		FontColor #151515
	BorderColor #d3f198
	BackgroundColor #d3f198-#b5e853
	StartColor #aa759f
	EndColor #aa759f
	AttributeFontColor #fefefe
	AttributeFontSize 11
}


skinparam queue {
		FontColor #151515
	BorderColor #d3f198
	BackgroundColor #d3f198-#b5e853
}


skinparam card {
	BackgroundColor #bb91b2-#aa759f
	BorderColor #bb91b2
	FontColor $INFO_TEXT
}


skinparam file {
	BackgroundColor #88b2c4-#6a9fb5
	BorderColor #88b2c4
	FontColor #eaeaea
}


skinparam stack {
		FontColor #151515
	BorderColor #d3f198
	BackgroundColor #d3f198-#b5e853
}

<style>
mindmapDiagram, wbsDiagram {
    element {
	    	FontColor #151515
	BorderColor #d3f198
	BackgroundColor #d3f198-#b5e853
	}
	:depth(0) {
        fontSize 16
        fontStyle bold
        fontColor #6a9fb5
    }
    :depth(1) {
        fontSize 14
        padding 5
        fontStyle bold
    }
    :depth(2) {
        fontSize 12
        padding 4
    }
    :depth(3) {
        fontSize 11
        padding 3
        fontColor #aa759f
    }

}
</style>


left to right direction
skinparam nodesep 25
skinparam ranksep 30

object SourceUser
object FilterSecurity
object FilterInput
object MapToQuery
object MapToEntity
object MapToResponse
object Repository
object SinkUser

SourceUser- -> FilterSecurity
FilterSecurity- -> FilterInput
FilterInput - -> MapToQuery
MapToQuery- -> MapToEntity
MapToEntity -> Repository
MapToEntity- -> MapToResponse
MapToResponse - -> SinkUser
@enduml

PlantUML version 1.2022.13beta7(Unknown compile time)
(GPL source distribution)
Java Runtime: Java(TM) SE Runtime Environment
JVM: Java HotSpot(TM) 64-Bit Server VM
Default Encoding: UTF-8
Language: en
Country: US
--></g></svg>